{
    "id": 46,
    "query": "why do we feel pain",
    "description": "explanation about how pain emerges , benefits for individuals",
    "relevances": {
        "2322": 0,
        "2334": 0,
        "400": 0,
        "254": 0,
        "571": 0,
        "1924": 1,
        "1147": 0,
        "1616": 0,
        "1037": 0,
        "1822": 0,
        "756": 0,
        "902": 1,
        "2274": 0,
        "1468": 0,
        "950": 0,
        "309": 0,
        "95": 0,
        "1898": 0,
        "444": 0,
        "77": 0,
        "1204": 0,
        "1032": 0,
        "591": 0,
        "1051": 0,
        "2239": 0,
        "40": 0,
        "318": 0,
        "1067": 0,
        "290": 0,
        "1563": 1,
        "2348": 0,
        "491": 0,
        "2286": 0,
        "994": 0,
        "1704": 0,
        "1833": 1,
        "1485": 0,
        "2006": 0,
        "1762": 0,
        "6": 0,
        "2393": 0,
        "314": 0,
        "1666": 1,
        "205": 1,
        "1994": 0,
        "2002": 0,
        "2125": 0,
        "2279": 0,
        "2291": 0,
        "94": 0,
        "508": 0,
        "1058": 0,
        "152": 0,
        "2258": 0,
        "1506": 1,
        "1730": 0,
        "605": 0,
        "154": 0,
        "1973": 1,
        "2367": 1,
        "1198": 0,
        "814": 0,
        "1780": 0,
        "1068": 0,
        "2349": 0,
        "1745": 0,
        "2312": 0,
        "1115": 0,
        "1705": 0,
        "42": 0,
        "1993": 0,
        "1333": 0,
        "155": 1,
        "751": 0,
        "1489": 0,
        "1001": 0,
        "1883": 0,
        "1761": 0,
        "938": 0,
        "2179": 0,
        "438": 0,
        "801": 1,
        "1697": 0,
        "1664": 0,
        "787": 0,
        "879": 0,
        "516": 0,
        "1913": 0,
        "2218": 0
    }
}