{
    "id": 7,
    "query": "WILL ROBOTS END HUMANITY",
    "description": "conspiracy theories, outlooks to future of technology, current state of research, ethics",
    "relevances": {
        "1655": 1,
        "413": 1,
        "1545": 1,
        "1442": 1,
        "2293": 1,
        "1724": 0,
        "2303": 1,
        "2235": 1,
        "2304": 0,
        "2439": 0,
        "752": 0,
        "2318": 0,
        "1578": 1,
        "2441": 0,
        "2366": 1,
        "461": 0,
        "829": 1,
        "2462": 0,
        "2044": 1,
        "239": 1,
        "297": 1,
        "2142": 0,
        "2422": 0,
        "2055": 0,
        "2434": 0,
        "724": 0,
        "1104": 0,
        "1267": 0,
        "321": 0,
        "260": 0,
        "2435": 1,
        "1508": 0,
        "1984": 0,
        "293": 0,
        "311": 0,
        "1463": 0,
        "2041": 0,
        "1357": 1,
        "1010": 0,
        "1981": 1,
        "2306": 0,
        "2413": 1,
        "525": 1,
        "632": 1,
        "1167": 1,
        "1453": 1,
        "1392": 1,
        "1100": 1,
        "2378": 0,
        "1363": 0,
        "2365": 0,
        "2116": 0,
        "1882": 1,
        "1817": 0,
        "817": 0
    }
}