{
    "id": 3,
    "query": "rhetoric of politicians",
    "description": "politicians controversies,language",
    "relevances": {
        "1030": 0,
        "453": 0,
        "2394": 0,
        "1458": 0,
        "2110": 0,
        "1515": 0,
        "806": 0,
        "649": 0,
        "1848": 0,
        "1286": 0,
        "1478": 1,
        "1715": 0,
        "985": 1,
        "468": 0,
        "596": 0,
        "2353": 0,
        "276": 0,
        "43": 0,
        "273": 0,
        "1504": 0,
        "2065": 0,
        "1696": 0,
        "1236": 0,
        "942": 0,
        "748": 0,
        "643": 0,
        "1351": 0,
        "1235": 1,
        "948": 0,
        "1441": 0,
        "552": 0,
        "1313": 0,
        "2247": 0,
        "1219": 0,
        "2311": 0,
        "389": 0,
        "907": 0,
        "1762": 0,
        "1866": 0,
        "1388": 1,
        "2328": 0,
        "768": 0,
        "2200": 0,
        "2158": 1,
        "1754": 0,
        "2211": 0,
        "2406": 0,
        "2373": 0,
        "2451": 0,
        "1593": 0,
        "2189": 0
    }
}