{
    "id": 42,
    "query": "obesity",
    "description": "effects om health, statistics, how to deal with it",
    "relevances": {
        "1450": 1,
        "654": 0,
        "695": 1,
        "594": 1,
        "2342": 0,
        "2231": 1,
        "1567": 0,
        "50": 0,
        "1838": 1,
        "659": 0,
        "1571": 1,
        "2370": 1,
        "2048": 1,
        "226": 1,
        "309": 1,
        "951": 0,
        "1518": 0,
        "1252": 0,
        "438": 0,
        "1044": 0,
        "519": 0,
        "1042": 0,
        "288": 1,
        "786": 1,
        "735": 0,
        "573": 1
    }
}