{
    "id": 44,
    "query": "do good and evil exist?",
    "description": "philosophy",
    "relevances": {
        "330": 0,
        "1134": 0,
        "1454": 0,
        "2353": 0,
        "293": 1,
        "1697": 0,
        "1054": 0,
        "1184": 0,
        "255": 1,
        "2446": 0,
        "1294": 0,
        "1071": 0,
        "1822": 0,
        "1296": 0,
        "465": 1,
        "2217": 0,
        "620": 0,
        "1112": 0,
        "453": 0,
        "1920": 0,
        "1939": 0,
        "187": 0,
        "154": 0,
        "2315": 1,
        "7": 0,
        "914": 1,
        "1603": 0,
        "715": 0,
        "1729": 0,
        "1684": 1,
        "2352": 0,
        "169": 0,
        "400": 0,
        "1318": 0,
        "476": 0,
        "244": 0,
        "256": 0,
        "1028": 1,
        "10": 1,
        "2357": 0,
        "2224": 1,
        "1089": 0,
        "96": 0,
        "1616": 0,
        "1559": 0,
        "1451": 0,
        "1187": 1,
        "95": 1,
        "1859": 0,
        "140": 0,
        "2444": 0,
        "1449": 0,
        "289": 0,
        "2399": 1,
        "216": 0,
        "2282": 0,
        "1696": 0
    }
}