{
    "id": 6,
    "query": "(Micro)plastic in our eco systems",
    "description": "farmers, pollution, plastic islands in the sea",
    "relevances": {
        "1916": 0,
        "1594": 1,
        "2287": 1,
        "533": 0,
        "646": 0,
        "61": 0,
        "755": 0,
        "1202": 0,
        "1244": 0,
        "764": 0,
        "1272": 0,
        "1064": 0,
        "800": 0,
        "1587": 0,
        "1382": 0,
        "1681": 0,
        "1640": 0,
        "831": 0,
        "708": 0,
        "991": 1,
        "386": 1,
        "815": 1,
        "759": 1,
        "2045": 1,
        "1466": 0,
        "1293": 0,
        "747": 0,
        "2060": 0,
        "487": 0,
        "1902": 0,
        "1731": 0,
        "2164": 0,
        "237": 0,
        "144": 0,
        "1629": 0,
        "2028": 0,
        "1268": 0,
        "771": 0,
        "1907": 0,
        "1724": 0,
        "959": 0,
        "669": 0,
        "1094": 0,
        "204": 0,
        "82": 0,
        "645": 0,
        "356": 0,
        "1170": 0,
        "544": 0,
        "724": 0,
        "2303": 0,
        "73": 0,
        "1376": 0,
        "366": 0,
        "1643": 0,
        "175": 0,
        "1710": 0,
        "360": 0,
        "364": 0,
        "307": 0,
        "2160": 0,
        "1232": 0,
        "443": 0,
        "877": 0,
        "549": 0,
        "1265": 0,
        "1523": 0,
        "1512": 0,
        "810": 0,
        "1383": 0,
        "1177": 0,
        "2330": 0,
        "1990": 0,
        "1706": 0,
        "2320": 0,
        "1192": 0,
        "592": 0
    }
}