{
    "id": 19,
    "query": "books",
    "description": "information, facts about books, history of books, how certain books shaped people's view",
    "relevances": {
        "284": 1,
        "979": 1,
        "2008": 1,
        "1828": 0,
        "1494": 0,
        "1433": 1,
        "2129": 0,
        "21": 0,
        "972": 0,
        "1101": 0,
        "1123": 1,
        "1331": 0,
        "1168": 0,
        "887": 1,
        "1739": 1,
        "2105": 0,
        "1572": 1,
        "1919": 0,
        "1721": 0,
        "2128": 0,
        "182": 0,
        "47": 0,
        "1685": 0,
        "136": 0,
        "1054": 0,
        "348": 1,
        "365": 0,
        "168": 0,
        "1035": 0,
        "2381": 0,
        "23": 0
    }
}