{
    "id": 41,
    "query": "elon musk tesla",
    "description": "who is elon musk, what is tesla, relation, news",
    "relevances": {
        "1378": 1,
        "2356": 1,
        "2099": 1,
        "1189": 0,
        "2366": 0,
        "1956": 0,
        "2091": 0,
        "1691": 0,
        "2303": 0,
        "1622": 0,
        "2435": 0,
        "1285": 0,
        "2097": 0,
        "1655": 0,
        "493": 0,
        "2022": 0,
        "447": 0,
        "388": 0,
        "194": 0,
        "1944": 0,
        "358": 0,
        "1387": 0,
        "1192": 0,
        "1009": 0,
        "38": 0,
        "1206": 0,
        "1921": 0,
        "343": 1,
        "865": 0,
        "2292": 0,
        "623": 0,
        "331": 0,
        "1876": 0,
        "1511": 0,
        "2461": 0,
        "2177": 0,
        "419": 1,
        "2433": 0,
        "612": 0,
        "910": 0,
        "1315": 0,
        "458": 0,
        "1116": 0,
        "2261": 0
    }
}