{
    "id": 24,
    "query": "internet slang",
    "description": "language, abbreviations, texting, social media",
    "relevances": {
        "1401": 1,
        "1315": 0,
        "1762": 1,
        "510": 0,
        "1685": 0,
        "139": 1,
        "1289": 0,
        "1255": 0,
        "1377": 0,
        "2070": 0,
        "1460": 0,
        "940": 0,
        "1618": 0,
        "1680": 0,
        "2204": 0,
        "1997": 0,
        "1261": 0,
        "2034": 0,
        "262": 0,
        "120": 0,
        "339": 0,
        "845": 0,
        "509": 0,
        "49": 0,
        "464": 0,
        "700": 0,
        "1146": 0,
        "389": 0,
        "1846": 0,
        "1719": 0,
        "889": 0,
        "1727": 0,
        "1517": 0,
        "671": 0,
        "1445": 0,
        "1955": 0
    }
}