{
    "id": 50,
    "query": "AI threat or opportunity",
    "description": "advantages, disadvantages, risks, benefits, reasoning",
    "relevances": {
        "2303": 1,
        "2418": 1,
        "249": 0,
        "202": 0,
        "2366": 1,
        "2208": 1,
        "2441": 0,
        "2261": 1,
        "714": 0,
        "2293": 1,
        "1950": 0,
        "2024": 0,
        "2285": 0,
        "1604": 0,
        "1621": 0,
        "1094": 0,
        "1515": 0,
        "611": 0,
        "1099": 0,
        "2358": 0,
        "1421": 0,
        "2049": 0,
        "1062": 0,
        "550": 0,
        "2462": 0,
        "2304": 0,
        "1882": 0,
        "2265": 1,
        "2352": 0,
        "1717": 0,
        "1283": 0,
        "625": 0,
        "280": 0,
        "2088": 0,
        "2223": 1,
        "292": 0,
        "1315": 0,
        "1591": 1,
        "1961": 0,
        "1000": 0,
        "1774": 0,
        "1550": 0,
        "1681": 0,
        "1207": 0,
        "1218": 0,
        "1656": 0,
        "1268": 0,
        "1821": 0,
        "2143": 0,
        "1680": 0,
        "2377": 1,
        "2171": 1,
        "236": 0,
        "1403": 1,
        "1216": 0,
        "505": 0,
        "2404": 0
    }
}