{
    "id": 33,
    "query": "gender inequality",
    "description": "social, career, gender roles",
    "relevances": {
        "2308": 1,
        "1963": 1,
        "2001": 1,
        "1954": 1,
        "2126": 1,
        "2064": 0,
        "1735": 0,
        "2329": 0,
        "1752": 0,
        "2247": 1,
        "296": 0,
        "2015": 1,
        "2098": 0,
        "2065": 1,
        "1003": 1,
        "1628": 0,
        "1726": 1,
        "2242": 1,
        "1345": 1,
        "1916": 0,
        "1678": 1,
        "2345": 1,
        "1184": 0,
        "1870": 0,
        "1875": 0,
        "1565": 0,
        "1490": 0,
        "2255": 0,
        "1613": 1,
        "1431": 1,
        "1918": 1,
        "794": 1,
        "2273": 1,
        "2420": 0,
        "2022": 0,
        "1576": 1,
        "791": 1,
        "918": 0,
        "1982": 0,
        "1715": 0
    }
}