{
    "id": 12,
    "query": "gen modification",
    "description": "How to modify DNA, crispr, technologies",
    "relevances": {
        "731": 1,
        "915": 1,
        "2283": 1,
        "145": 0,
        "1886": 1,
        "690": 0,
        "809": 0,
        "1759": 1,
        "797": 0,
        "79": 1,
        "868": 0,
        "1165": 0,
        "806": 0,
        "366": 0,
        "343": 0,
        "1001": 0,
        "477": 1,
        "478": 1,
        "884": 1,
        "2210": 1,
        "1986": 1,
        "2119": 1,
        "311": 0,
        "1161": 0,
        "420": 1,
        "2393": 0,
        "1021": 1,
        "2333": 0,
        "442": 0,
        "586": 0,
        "244": 0,
        "245": 0,
        "1649": 0,
        "2148": 0,
        "1179": 0,
        "976": 0,
        "1288": 0,
        "81": 0,
        "367": 0,
        "68": 0,
        "2458": 0,
        "1374": 0,
        "197": 0,
        "2043": 0,
        "1915": 0,
        "2018": 0,
        "305": 0,
        "1905": 0,
        "447": 0,
        "993": 0,
        "1029": 0
    }
}